<svg xmlns="http://www.w3.org/2000/svg" viewBox="-917 -80 20 20">
  <g id="Group_721" data-name="Group 721" transform="translate(-892 897.362) rotate(180)">
    <path id="Path_481" data-name="Path 481" d="M57,957.362h8.444v20H57V974.7h5.778V960.029H57Z" transform="translate(-40.444)"/>
    <path id="Path_482" data-name="Path 482" d="M5,982.918l5.333-5.556v3.111H20.556v4.889H10.333v3.111Z" transform="translate(0 -15.556)"/>
  </g>
</svg>
