<svg xmlns="http://www.w3.org/2000/svg" viewBox="7280.733 741 68.756 12">
  <defs>
    <style>
      .cls-1 {
        fill: #c94837;
      }

      .cls-2 {
        fill: #8f9497;
      }
    </style>
  </defs>
  <g id="Group_262" data-name="Group 262" transform="translate(7280.733 741)">
    <path id="Path_97" data-name="Path 97" class="cls-1" d="M28.827,27.4A2.227,2.227,0,1,1,26.6,29.627,2.226,2.226,0,0,1,28.827,27.4" transform="translate(-23.895 -24.614)"/>
    <path id="Path_98" data-name="Path 98" class="cls-2" d="M10.22,4.9A5.073,5.073,0,0,0,5.125,0,5,5,0,0,0,0,4.9a5.086,5.086,0,0,0,5.085,5.136H10.23v-5.2h0C10.22,4.841,10.22,4.9,10.22,4.9ZM2.115,5A2.817,2.817,0,1,1,4.932,7.82,2.817,2.817,0,0,1,2.115,5Z"/>
    <g id="Group_261" data-name="Group 261" transform="translate(12.254 2.471)">
      <path id="Path_99" data-name="Path 99" class="cls-2" d="M123.3,27.5h1.4l2.786,7.251h-1.434l-.569-1.495h-2.959l-.59,1.495H120.5Zm.7,1.922-.976,2.492h1.942Z" transform="translate(-120.5 -27.175)"/>
      <path id="Path_100" data-name="Path 100" class="cls-2" d="M199.442,44.742v.59a2.534,2.534,0,0,1,.793-.549,2.25,2.25,0,0,1,.905-.183,2.327,2.327,0,0,1,1.78.793,2.887,2.887,0,0,1,.732,2.034,2.813,2.813,0,0,1-.763,2,2.39,2.39,0,0,1-1.8.8,2.217,2.217,0,0,1-.864-.163,2.615,2.615,0,0,1-.793-.539v2.532H198.1V44.742Zm1.414,1.108a1.4,1.4,0,0,0-1.058.437,1.577,1.577,0,0,0-.417,1.129,1.636,1.636,0,0,0,.417,1.159,1.461,1.461,0,0,0,2.095-.01,1.576,1.576,0,0,0,.417-1.139,1.6,1.6,0,0,0-.417-1.129A1.3,1.3,0,0,0,200.856,45.851Z" transform="translate(-190.208 -42.536)"/>
      <path id="Path_101" data-name="Path 101" class="cls-2" d="M264.942,44.742v.59a2.533,2.533,0,0,1,.793-.549,2.25,2.25,0,0,1,.905-.183,2.327,2.327,0,0,1,1.78.793,2.887,2.887,0,0,1,.732,2.034,2.813,2.813,0,0,1-.763,2,2.391,2.391,0,0,1-1.8.8,2.217,2.217,0,0,1-.864-.163,2.616,2.616,0,0,1-.793-.539v2.532H263.6V44.742Zm1.414,1.108a1.4,1.4,0,0,0-1.058.437,1.578,1.578,0,0,0-.417,1.129,1.636,1.636,0,0,0,.417,1.159,1.461,1.461,0,0,0,2.095-.01,1.576,1.576,0,0,0,.417-1.139,1.6,1.6,0,0,0-.417-1.129A1.3,1.3,0,0,0,266.356,45.851Z" transform="translate(-249.047 -42.536)"/>
      <path id="Path_102" data-name="Path 102" class="cls-2" d="M327.8,25.7h1.342v7.434H327.8Z" transform="translate(-306.719 -25.558)"/>
      <path id="Path_103" data-name="Path 103" class="cls-2" d="M350.654,24.3a.868.868,0,0,1,.864.875.856.856,0,0,1-1.464.61.859.859,0,0,1-.254-.631.83.83,0,0,1,.254-.61A.845.845,0,0,1,350.654,24.3Zm-.681,2.207h1.342v5.359h-1.342Z" transform="translate(-326.481 -24.3)"/>
      <path id="Path_104" data-name="Path 104" class="cls-2" d="M379.712,45.831l-1.119.62a1.831,1.831,0,0,0-.62-.458,1.946,1.946,0,0,0-.722-.132,1.7,1.7,0,0,0-1.22.447,1.634,1.634,0,0,0-.02,2.268,1.638,1.638,0,0,0,1.18.437,1.7,1.7,0,0,0,1.4-.62l1.058.722a2.877,2.877,0,0,1-2.43,1.119A2.921,2.921,0,0,1,375,49.4a2.728,2.728,0,0,1-.8-1.963A2.807,2.807,0,0,1,374.586,46a2.717,2.717,0,0,1,1.088-1.027,3.2,3.2,0,0,1,1.556-.376,3.159,3.159,0,0,1,1.434.315A2.935,2.935,0,0,1,379.712,45.831Z" transform="translate(-348.4 -42.536)"/>
      <path id="Path_105" data-name="Path 105" class="cls-2" d="M438.51,44.742h1.342V50.1H438.51v-.569a2.615,2.615,0,0,1-.793.539,2.167,2.167,0,0,1-.854.163,2.39,2.39,0,0,1-1.8-.8,2.8,2.8,0,0,1-.763-2,2.886,2.886,0,0,1,.732-2.034,2.327,2.327,0,0,1,1.78-.793,2.25,2.25,0,0,1,.905.183,2.5,2.5,0,0,1,.783.549l.01-.59ZM437.1,45.851a1.353,1.353,0,0,0-1.037.437,1.75,1.75,0,0,0,0,2.268A1.377,1.377,0,0,0,437.1,49a1.359,1.359,0,0,0,1.047-.437,1.636,1.636,0,0,0,.417-1.159,1.561,1.561,0,0,0-.417-1.129A1.387,1.387,0,0,0,437.1,45.851Z" transform="translate(-402.388 -42.536)"/>
      <path id="Path_106" data-name="Path 106" class="cls-2" d="M497.792,26.6h1.342v1.973h.793v1.159h-.793v4.2h-1.342v-4.2H497.1V28.573h.692V26.6Z" transform="translate(-458.802 -26.366)"/>
      <path id="Path_107" data-name="Path 107" class="cls-2" d="M532,46h1.363v2.583a3.536,3.536,0,0,0,.1,1.047.965.965,0,0,0,.336.458,1.078,1.078,0,0,0,1.139,0,.918.918,0,0,0,.346-.468,3.433,3.433,0,0,0,.081-.986V46h1.342v2.268a5.451,5.451,0,0,1-.224,1.922,2.142,2.142,0,0,1-.793.966,2.455,2.455,0,0,1-1.342.336,2.34,2.34,0,0,1-1.424-.4,2.043,2.043,0,0,1-.763-1.1A6.727,6.727,0,0,1,532,48.227Z" transform="translate(-490.153 -43.793)"/>
      <path id="Path_108" data-name="Path 108" class="cls-2" d="M588.5,44.742h1.149v.671a1.5,1.5,0,0,1,.5-.61,1.166,1.166,0,0,1,.681-.2,1.3,1.3,0,0,1,.549.142l-.417,1.159a.915.915,0,0,0-.386-.122.631.631,0,0,0-.529.386,3.527,3.527,0,0,0-.214,1.505V50.1H588.5V44.742Z" transform="translate(-540.907 -42.536)"/>
      <path id="Path_109" data-name="Path 109" class="cls-2" d="M626.334,47.724h-4.322a1.46,1.46,0,0,0,.5.905,1.589,1.589,0,0,0,1.037.336,1.765,1.765,0,0,0,1.292-.529l1.129.529a2.623,2.623,0,0,1-1.017.885,3.172,3.172,0,0,1-1.4.285,2.774,2.774,0,0,1-2.054-.793,2.7,2.7,0,0,1-.793-1.993,2.791,2.791,0,0,1,.793-2.034,2.669,2.669,0,0,1,1.983-.814,2.773,2.773,0,0,1,2.064.814,2.926,2.926,0,0,1,.793,2.146Zm-1.342-1.058a1.4,1.4,0,0,0-.529-.732,1.658,1.658,0,0,0-1.9.031,1.865,1.865,0,0,0-.5.692l2.929.01Z" transform="translate(-569.832 -42.446)"/>
    </g>
  </g>
</svg>
