<?xml version="1.0" encoding="utf-8"?>
<!-- Generator: Adobe Illustrator 22.0.1, SVG Export Plug-In . SVG Version: 6.00 Build 0)  -->
<svg version="1.1" id="Шар_1" xmlns="http://www.w3.org/2000/svg" xmlns:xlink="http://www.w3.org/1999/xlink" x="0px" y="0px"
	 viewBox="0 0 5.1 5.1" style="enable-background:new 0 0 5.1 5.1;" xml:space="preserve">
<g id="Group_759" transform="translate(-900 7174)">
	<g id="Line_21">
		<rect x="902.1" y="-7174.6" transform="matrix(0.7071 -0.7071 0.7071 0.7071 5335.3301 -1462.2659)" width="1" height="6.2"/>
	</g>
	<g id="Line_22">
		<rect x="899.4" y="-7171.9" transform="matrix(0.7071 -0.7071 0.7071 0.7071 5335.3301 -1462.2659)" width="6.2" height="1"/>
	</g>
</g>
</svg>
