<?xml version="1.0" encoding="utf-8"?>
<!-- Generator: Adobe Illustrator 22.0.1, SVG Export Plug-In . SVG Version: 6.00 Build 0)  -->
<svg version="1.1" id="Шар_1" xmlns="http://www.w3.org/2000/svg" xmlns:xlink="http://www.w3.org/1999/xlink" x="0px" y="0px"
	 viewBox="0 0 19 21" style="enable-background:new 0 0 19 21;" xml:space="preserve">
<style type="text/css">
	.st0{fill:none;}
	.st1{fill:#724C54;}
	.st2{fill:#FFFFFF;}
</style>
<g id="Group_654" transform="translate(-7 7768)">
	<g id="Rectangle_70" transform="translate(652 165)">
		<g>
			<path class="st0" d="M-643-7933h15c1.1,0,2,0.9,2,2v17c0,1.1-0.9,2-2,2h-15c-1.1,0-2-0.9-2-2v-17
				C-645-7932.1-644.1-7933-643-7933z"/>
		</g>
		<g>
			<path class="st1" d="M-628-7912h-15c-1.1,0-2-0.9-2-2v-17c0-1.1,0.9-2,2-2h15c1.1,0,2,0.9,2,2v17
				C-626-7912.9-626.9-7912-628-7912z M-643-7931L-643-7931v17h15v-17H-643z"/>
		</g>
	</g>
	<g id="Rectangle_71" transform="translate(657 170)">
		<g>
			<rect x="-645" y="-7933" class="st2" width="9" height="2"/>
		</g>
		<g>
			<rect x="-645" y="-7933" class="st1" width="9" height="2"/>
		</g>
	</g>
	<g id="Rectangle_72" transform="translate(657 174)">
		<g>
			<rect x="-645" y="-7933" class="st2" width="9" height="2"/>
		</g>
		<g>
			<rect x="-645" y="-7933" class="st1" width="9" height="2"/>
		</g>
	</g>
	<g id="Rectangle_73" transform="translate(657 178)">
		<g>
			<rect x="-645" y="-7933" class="st2" width="9" height="2"/>
		</g>
		<g>
			<rect x="-645" y="-7933" class="st1" width="9" height="2"/>
		</g>
	</g>
</g>
</svg>
