<svg xmlns="http://www.w3.org/2000/svg" viewBox="-1406 32 141 15.342">
  <defs>
    <style>
      .cls-1 {
        fill: #d4b965;
        fill-rule: evenodd;
      }
    </style>
  </defs>
  <g id="Orocrypt_Logo" transform="translate(-1609.896 3419.39)">
    <g id="Orocrypt_Logo-2" data-name="Orocrypt Logo" transform="translate(203.896 -3387.39)">
      <path id="Path_368" data-name="Path 368" class="cls-1" d="M15.4,7.671a7.557,7.557,0,0,1-7.7,7.671A7.557,7.557,0,0,1,0,7.671,7.557,7.557,0,0,1,7.7,0,7.557,7.557,0,0,1,15.4,7.671Zm38.269,0a7.7,7.7,0,0,1-15.4,0,7.7,7.7,0,0,1,15.4,0Zm19.019,4.616A7.315,7.315,0,0,1,66.3,15.342a7.443,7.443,0,0,1-7.546-7.671A7.5,7.5,0,0,1,66.371,0a6.833,6.833,0,0,1,5.966,2.9l-1.8,1.275A4.8,4.8,0,0,0,66.3,2.132c-2.962,0-5.112,2.374-5.112,5.539a5.192,5.192,0,0,0,5.2,5.539,5.284,5.284,0,0,0,4.475-2.176Zm9.1-2.66h2.721l3.334,5.517h2.567l-3.6-5.935a4.233,4.233,0,0,0,2.9-4.264c0-2.836-2-4.748-5.485-4.748H79.444V15.145h2.347Zm18.515-.44v5.957h2.347V9.166L107.722.2h-2.457l-3.751,6.7L97.7.2H95.107Zm18.6.682h-2.391v5.275H114.17V.2h4.739c3.488,0,5.485,1.934,5.485,4.836C124.394,8,122.375,9.869,118.909,9.869Zm15.312,5.275h2.348V2.286H141V.2H129.79V2.286h4.431Zm-17.7-7.364v-5.5h2.3c2.194,0,3.137.9,3.137,2.748,0,1.824-.922,2.747-3.137,2.747Zm-34.726-5.5V7.605H84.14c2.215,0,3.137-.879,3.137-2.66,0-1.8-.943-2.66-3.137-2.66ZM45.969,13.21A5.23,5.23,0,0,1,40.7,7.671a5.272,5.272,0,1,1,10.53,0A5.23,5.23,0,0,1,45.969,13.21ZM24.383,7.605V2.286H26.73c2.194,0,3.137.857,3.137,2.66,0,1.78-.921,2.66-3.137,2.66Zm2.435,2.022H24.383v5.517H22.036V.2h4.782C30.306.2,32.3,2.11,32.3,4.946a4.233,4.233,0,0,1-2.9,4.264L33,15.145H30.438L27.1,9.627ZM7.7,13.21A5.23,5.23,0,0,1,2.435,7.671,5.23,5.23,0,0,1,7.7,2.132a5.231,5.231,0,0,1,5.265,5.539A5.231,5.231,0,0,1,7.7,13.21Z" transform="translate(0)"/>
    </g>
  </g>
</svg>
