<?xml version="1.0" encoding="utf-8"?>
<!-- Generator: Adobe Illustrator 22.0.1, SVG Export Plug-In . SVG Version: 6.00 Build 0)  -->
<svg version="1.1" id="Шар_1" xmlns="http://www.w3.org/2000/svg" xmlns:xlink="http://www.w3.org/1999/xlink" x="0px" y="0px"
	 viewBox="0 0 10.5 8" style="enable-background:new 0 0 10.5 8;" xml:space="preserve">
<path id="Path_494" d="M3.3,8C3.1,8,2.9,7.9,2.8,7.8L0.2,5.3C0,5-0.1,4.5,0.2,4.2c0.3-0.3,0.7-0.4,1-0.1c0,0,0,0,0,0l0,0l2,2l6-5.9
	c0.3-0.3,0.8-0.3,1.1,0s0.3,0.8,0,1.1c0,0,0,0,0,0l0,0L3.8,7.8C3.7,7.9,3.5,8,3.3,8z"/>
</svg>
