<?xml version="1.0" encoding="utf-8"?>
<!-- Generator: Adobe Illustrator 22.0.1, SVG Export Plug-In . SVG Version: 6.00 Build 0)  -->
<svg version="1.1" id="Шар_1" xmlns="http://www.w3.org/2000/svg" xmlns:xlink="http://www.w3.org/1999/xlink" x="0px" y="0px"
	 viewBox="0 0 14.7 11.1" style="enable-background:new 0 0 14.7 11.1;" xml:space="preserve">
<style type="text/css">
	.st0{fill:#74AC63;}
</style>
<g id="Path_434">
	<polygon class="st0" points="5.6,11.1 0,5.2 1.5,3.8 5.6,8.2 13.2,0 14.7,1.4 	"/>
</g>
</svg>
