<svg xmlns="http://www.w3.org/2000/svg" viewBox="253 10436.999 10.533 16">
  <defs>
    <style>
      .cls-1 {
        fill: #ccc;
      }
    </style>
  </defs>
  <path id="Path_419" data-name="Path 419" class="cls-1" d="M1.38,952.318a1.4,1.4,0,0,0-1.38,1.4v13.2a1.38,1.38,0,0,0,1.38,1.38H9.153a1.38,1.38,0,0,0,1.38-1.38V953.7a1.4,1.4,0,0,0-1.38-1.4l-7.773.018Zm2.579,1.4H6.538a.363.363,0,1,1,0,.726H4a.364.364,0,0,1-.381-.345A.377.377,0,0,1,3.959,953.717ZM.726,956H9.807v8.608H.726Zm4.449,9.535h.091a.926.926,0,1,1-.926.926A.915.915,0,0,1,5.176,965.539Z" transform="translate(253 9484.699)"/>
</svg>
