<svg xmlns="http://www.w3.org/2000/svg" viewBox="-1057 -79 20 20">
  <path id="Path_457" data-name="Path 457" d="M0,10,10,20V13.75H20V6.25H10V0Z" transform="translate(-1057 -59) rotate(-90)"/>
</svg>
