<?xml version="1.0" encoding="utf-8"?>
<!-- Generator: Adobe Illustrator 22.0.1, SVG Export Plug-In . SVG Version: 6.00 Build 0)  -->
<svg version="1.1" id="Шар_1" xmlns="http://www.w3.org/2000/svg" xmlns:xlink="http://www.w3.org/1999/xlink" x="0px" y="0px"
	 viewBox="0 0 4.7 3.1" style="enable-background:new 0 0 4.7 3.1;" xml:space="preserve">
<style type="text/css">
	.st0{fill:#1D537C;}
</style>
<g id="Path_64">
	<polygon class="st0" points="2.4,3.1 0,0.7 0.7,0 2.4,1.6 4,0 4.7,0.7 	"/>
</g>
</svg>
