<svg xmlns="http://www.w3.org/2000/svg" viewBox="-1057 -42 20 20">
  <g id="reorder-option" transform="translate(-1057 -78.542)">
    <g id="Group_717" data-name="Group 717" transform="translate(0 36.542)">
      <path id="Path_462" data-name="Path 462" d="M19.167,328.9H.833a.743.743,0,0,0-.586.3,1.063,1.063,0,0,0-.247.7v2a1.064,1.064,0,0,0,.247.7.743.743,0,0,0,.586.3H19.167a.743.743,0,0,0,.586-.3,1.064,1.064,0,0,0,.247-.7v-2a1.062,1.062,0,0,0-.247-.7A.743.743,0,0,0,19.167,328.9Z" transform="translate(0 -312.897)"/>
      <path id="Path_463" data-name="Path 463" d="M19.753,36.839a.742.742,0,0,0-.586-.3H.833a.742.742,0,0,0-.586.3,1.063,1.063,0,0,0-.247.7v2a1.063,1.063,0,0,0,.247.7.742.742,0,0,0,.586.3H19.167a.742.742,0,0,0,.586-.3,1.064,1.064,0,0,0,.247-.7v-2A1.063,1.063,0,0,0,19.753,36.839Z" transform="translate(0 -36.542)"/>
      <path id="Path_464" data-name="Path 464" d="M19.167,182.72H.833a.742.742,0,0,0-.586.3,1.063,1.063,0,0,0-.247.7v2a1.063,1.063,0,0,0,.247.7.743.743,0,0,0,.586.3H19.167a.743.743,0,0,0,.586-.3,1.063,1.063,0,0,0,.247-.7v-2a1.064,1.064,0,0,0-.247-.7A.742.742,0,0,0,19.167,182.72Z" transform="translate(0 -174.72)"/>
    </g>
  </g>
</svg>
