<?xml version="1.0" encoding="utf-8"?>
<!-- Generator: Adobe Illustrator 22.0.0, SVG Export Plug-In . SVG Version: 6.00 Build 0)  -->
<svg version="1.1" id="Шар_1" xmlns="http://www.w3.org/2000/svg" xmlns:xlink="http://www.w3.org/1999/xlink" x="0px" y="0px"
	 viewBox="0 0 148.3 134.3" style="enable-background:new 0 0 148.3 134.3;" xml:space="preserve">
<style type="text/css">
	.st0{fill:#0098BC;}
	.st1{opacity:0.1;fill:#FFFFFF;enable-background:new    ;}
	.st2{enable-background:new    ;}
	.st3{fill:#16151A;}
	.st4{fill:#16151A;stroke:#0098BC;}
</style>
<g id="Group_269" transform="translate(2812 1997.164)">
	<circle id="Ellipse_68" class="st0" cx="-2737.6" cy="-1930" r="67.2"/>
	<path id="Path_113" class="st1" d="M-2785.3-1882.5c-26-26.4-25.7-69,0.7-95c26.2-25.8,68.1-25.8,94.3,0L-2785.3-1882.5z"/>
	<g class="st2">
		<path class="st3" d="M-2763.1-1961.8c0-1.4,0.3-2.5,1-3.3c0.7-0.8,1.7-1.1,3-1.1c1.3,0,2.4,0.4,3,1.1c0.7,0.8,1,1.8,1,3.3v0.5
			h-2.6v-0.7c0-0.6-0.1-1.1-0.4-1.3c-0.2-0.3-0.6-0.4-1-0.4c-0.4,0-0.8,0.1-1,0.4c-0.2,0.3-0.4,0.7-0.4,1.3c0,0.6,0.1,1.1,0.4,1.6
			c0.3,0.5,0.6,0.9,1,1.3c0.4,0.4,0.8,0.8,1.3,1.2s0.9,0.9,1.3,1.3c0.4,0.5,0.7,1,1,1.7c0.3,0.6,0.4,1.3,0.4,2.2
			c0,1.4-0.3,2.5-1,3.3c-0.7,0.8-1.7,1.1-3.1,1.1c-1.3,0-2.4-0.4-3.1-1.1c-0.7-0.8-1-1.8-1-3.3v-1.1h2.6v1.2c0,0.6,0.1,1.1,0.4,1.3
			c0.3,0.2,0.6,0.4,1,0.4c0.4,0,0.8-0.1,1-0.4c0.3-0.2,0.4-0.7,0.4-1.3c0-0.6-0.1-1.1-0.4-1.6s-0.6-0.9-1-1.3s-0.8-0.8-1.3-1.2
			c-0.5-0.4-0.9-0.9-1.3-1.3c-0.4-0.5-0.7-1-1-1.7C-2763-1960.2-2763.1-1960.9-2763.1-1961.8z"/>
		<path class="st3" d="M-2747.6-1953.5l1.9-12.4h3.8v17.5h-2.6v-12.5l-1.9,12.5h-2.6l-2-12.4v12.4h-2.4v-17.5h3.8L-2747.6-1953.5z"
			/>
		<path class="st3" d="M-2731-1948.5h-2.8l-0.5-3.2h-3.4l-0.5,3.2h-2.5l2.8-17.5h4L-2731-1948.5z M-2737.3-1954h2.6l-1.3-8.9
			L-2737.3-1954z"/>
		<path class="st3" d="M-2724-1948.5c0-0.1-0.1-0.2-0.1-0.3c0-0.1-0.1-0.2-0.1-0.4c0-0.1,0-0.3,0-0.6c0-0.2,0-0.5,0-0.9v-2.8
			c0-0.8-0.1-1.4-0.4-1.7c-0.3-0.3-0.7-0.5-1.4-0.5h-1v7.1h-2.8v-17.5h4.2c1.4,0,2.5,0.3,3.1,1c0.6,0.7,1,1.7,1,3v1.4
			c0,1.8-0.6,3-1.8,3.5c0.7,0.3,1.2,0.7,1.4,1.4s0.4,1.4,0.4,2.3v2.7c0,0.4,0,0.8,0,1.1s0.1,0.7,0.2,1H-2724z M-2727-1963.5v5.4h1.1
			c0.5,0,0.9-0.1,1.2-0.4c0.3-0.3,0.4-0.8,0.4-1.4v-1.7c0-0.6-0.1-1.1-0.3-1.4c-0.2-0.3-0.6-0.4-1.1-0.4H-2727z"/>
		<path class="st3" d="M-2720.5-1966h8.5v2.5h-2.9v15h-2.8v-15h-2.9V-1966z"/>
	</g>
	<g class="st2">
		<path class="st3" d="M-2767.7-1930.2v2.3c0,1.4-0.3,2.5-1,3.3c-0.7,0.8-1.7,1.1-3.1,1.1c-1.4,0-2.4-0.4-3.1-1.1
			c-0.7-0.8-1-1.8-1-3.3v-9.1c0-1.4,0.3-2.5,1-3.3c0.7-0.8,1.7-1.1,3.1-1.1c1.3,0,2.4,0.4,3.1,1.1c0.7,0.8,1,1.8,1,3.3v1.7h-2.6
			v-1.9c0-0.6-0.1-1.1-0.4-1.3c-0.3-0.3-0.6-0.4-1-0.4c-0.4,0-0.8,0.1-1,0.4c-0.3,0.3-0.4,0.7-0.4,1.3v9.4c0,0.6,0.1,1.1,0.4,1.3
			s0.6,0.4,1,0.4c0.4,0,0.8-0.1,1-0.4c0.3-0.2,0.4-0.7,0.4-1.3v-2.5H-2767.7z"/>
		<path class="st3" d="M-2766.3-1937c0-1.4,0.4-2.5,1.1-3.3c0.7-0.8,1.8-1.1,3.1-1.1c1.3,0,2.4,0.4,3.1,1.1c0.7,0.8,1.1,1.8,1.1,3.3
			v9.1c0,1.4-0.4,2.5-1.1,3.3c-0.7,0.8-1.8,1.1-3.1,1.1c-1.4,0-2.4-0.4-3.1-1.1c-0.7-0.8-1.1-1.8-1.1-3.3V-1937z M-2763.5-1927.7
			c0,0.6,0.1,1.1,0.4,1.3c0.3,0.3,0.6,0.4,1,0.4c0.4,0,0.8-0.1,1-0.4c0.3-0.3,0.4-0.7,0.4-1.3v-9.4c0-0.6-0.1-1.1-0.4-1.3
			c-0.3-0.3-0.6-0.4-1-0.4c-0.4,0-0.8,0.1-1,0.4c-0.3,0.3-0.4,0.7-0.4,1.3V-1927.7z"/>
		<path class="st3" d="M-2753.7-1936.3v12.7h-2.5v-17.5h3.5l2.8,10.5v-10.5h2.5v17.5h-2.8L-2753.7-1936.3z"/>
		<path class="st3" d="M-2746.3-1941.2h8.5v2.5h-2.9v15h-2.8v-15h-2.9V-1941.2z"/>
		<path class="st3" d="M-2730.8-1923.7c0-0.1-0.1-0.2-0.1-0.3c0-0.1-0.1-0.2-0.1-0.4c0-0.1,0-0.3,0-0.6c0-0.2,0-0.5,0-0.9v-2.8
			c0-0.8-0.1-1.4-0.4-1.7c-0.3-0.3-0.7-0.5-1.4-0.5h-1v7.1h-2.8v-17.5h4.1c1.4,0,2.5,0.3,3.1,1c0.6,0.7,1,1.7,1,3v1.4
			c0,1.8-0.6,3-1.8,3.5c0.7,0.3,1.2,0.7,1.4,1.4c0.3,0.6,0.4,1.4,0.4,2.3v2.7c0,0.4,0,0.8,0,1.1s0.1,0.7,0.2,1H-2730.8z
			 M-2733.8-1938.7v5.4h1.1c0.5,0,0.9-0.1,1.2-0.4c0.3-0.3,0.4-0.8,0.4-1.4v-1.7c0-0.6-0.1-1.1-0.3-1.4c-0.2-0.3-0.6-0.4-1.1-0.4
			H-2733.8z"/>
		<path class="st3" d="M-2717.6-1923.7h-2.8l-0.5-3.2h-3.4l-0.5,3.2h-2.5l2.8-17.5h4L-2717.6-1923.7z M-2723.9-1929.2h2.6l-1.3-8.9
			L-2723.9-1929.2z"/>
		<path class="st3" d="M-2708.4-1930.2v2.3c0,1.4-0.3,2.5-1,3.3c-0.7,0.8-1.7,1.1-3.1,1.1c-1.4,0-2.4-0.4-3.1-1.1
			c-0.7-0.8-1-1.8-1-3.3v-9.1c0-1.4,0.3-2.5,1-3.3c0.7-0.8,1.7-1.1,3.1-1.1c1.3,0,2.4,0.4,3.1,1.1c0.7,0.8,1,1.8,1,3.3v1.7h-2.6
			v-1.9c0-0.6-0.1-1.1-0.4-1.3c-0.3-0.3-0.6-0.4-1-0.4c-0.4,0-0.8,0.1-1,0.4c-0.3,0.3-0.4,0.7-0.4,1.3v9.4c0,0.6,0.1,1.1,0.4,1.3
			s0.6,0.4,1,0.4c0.4,0,0.8-0.1,1-0.4c0.3-0.2,0.4-0.7,0.4-1.3v-2.5H-2708.4z"/>
		<path class="st3" d="M-2707.5-1941.2h8.5v2.5h-2.9v15h-2.8v-15h-2.9V-1941.2z"/>
	</g>
	<path id="Path_114" class="st4" d="M-2664.9-1879.7h-145.8l15.4-15l-15.4-15.1h145.8l-15.4,15.1L-2664.9-1879.7z"/>
	<g class="st2">
		<path class="st0" d="M-2757.8-1886.5h-2.6l-0.4-2.9h-3.1l-0.4,2.9h-2.3l2.6-16.1h3.7L-2757.8-1886.5z M-2763.6-1891.6h2.4
			l-1.2-8.1L-2763.6-1891.6z"/>
		<path class="st0" d="M-2754.2-1902.6v12.4c0,0.6,0.1,1,0.4,1.2c0.2,0.2,0.6,0.3,1,0.3c0.4,0,0.7-0.1,1-0.3
			c0.2-0.2,0.4-0.6,0.4-1.2v-12.4h2.4v12.3c0,1.3-0.3,2.3-1,3c-0.6,0.7-1.6,1-2.8,1s-2.2-0.3-2.8-1c-0.6-0.7-1-1.7-1-3v-12.3
			H-2754.2z"/>
		<path class="st0" d="M-2747.5-1902.6h4c1.3,0,2.2,0.3,2.8,1c0.6,0.7,0.9,1.7,0.9,3v8.1c0,1.3-0.3,2.3-0.9,3c-0.6,0.7-1.6,1-2.8,1
			h-4V-1902.6z M-2745-1900.3v11.5h1.4c0.4,0,0.7-0.1,0.9-0.3c0.2-0.2,0.3-0.6,0.3-1.2v-8.4c0-0.6-0.1-1-0.3-1.2
			c-0.2-0.2-0.5-0.3-0.9-0.3H-2745z"/>
		<path class="st0" d="M-2738.1-1902.6h2.5v16.1h-2.5V-1902.6z"/>
		<path class="st0" d="M-2734.5-1902.6h7.8v2.3h-2.6v13.8h-2.5v-13.8h-2.6V-1902.6z"/>
		<path class="st0" d="M-2723-1895.9h3.5v2.3h-3.5v4.7h4.4v2.3h-6.9v-16.1h6.9v2.3h-4.4V-1895.9z"/>
		<path class="st0" d="M-2717.1-1902.6h4c1.3,0,2.2,0.3,2.8,1c0.6,0.7,0.9,1.7,0.9,3v8.1c0,1.3-0.3,2.3-0.9,3c-0.6,0.7-1.6,1-2.8,1
			h-4V-1902.6z M-2714.6-1900.3v11.5h1.4c0.4,0,0.7-0.1,0.9-0.3c0.2-0.2,0.3-0.6,0.3-1.2v-8.4c0-0.6-0.1-1-0.3-1.2
			c-0.2-0.2-0.5-0.3-0.9-0.3H-2714.6z"/>
	</g>
</g>
</svg>
